Street Address,City,State,Zip Code,Voting Location,City Council District,Supplement District
1920 NELSON AV,MEMPHIS,TN,38053,ROZELLE ELEM SCHOOL,4,8
8682 ROSEMARK RD,MILLINGTON,TN,38053-4814,OAK SPRINGS BAPTIST CHURCH,0,0
